…
# Load Straight to Memory
tcga_load_cohort_mutations('GBM')
#> # A tibble: 69,853 × 11
#>    Sample   Gene  Chromosome Start_Position Ref   Alt   MutationType HGVSp_Short
#>    <fct>    <chr> <chr>               <dbl> <chr> <chr> <fct>        <chr>      
#>  1 TCGA-02… JAKM… 10              133967449 C     T     Silent       p.D723D    
#>  2 TCGA-02… FAT3  11               92570936 G     A     Silent       p.P3444P   
#>  3 TCGA-02… NOS1  12              117768962 C     A     5'Flank      .          
#>  4 TCGA-02… MYH6  14               23858709 G     T     Silent       p.R1291R   
#>  5 TCGA-02… WDR72 15               53998200 A     T     Silent       p.S342S    
#>  6 TCGA-02… GNPTG 16                1412529 C     T     Silent       p.T201T    
#>  7 TCGA-02… ILF3  19               10789305 C     T     Silent       p.N192N    
#>  8 TCGA-02… PEX14 1                10690182 G     A     3'UTR        .          
#>  9 TCGA-02… NR1I3 1               161206281 C     T     Silent       p.A25A     
#> 10 TCGA-02… TGM6  20                2413386 T     C     3'UTR        .          
#> # ℹ 69,843 more rows
#> # ℹ 3 more variables: GeneFirstLetter <chr>, Disease <chr>, Silent <chr>

# Connect to dataset and filter based on our interests (less memory intensive)
tcga_open_mutation_datasets() |>
  dplyr::filter(Disease == "GBM", Silent == FALSE) |>
  dplyr::collect()
#> # A tibble: 46,413 × 11
#>    Sample   Gene  Chromosome Start_Position Ref   Alt   MutationType HGVSp_Short
#>    <fct>    <chr> <chr>               <dbl> <chr> <chr> <fct>        <chr>      
#>  1 TCGA-02… TACC2 10              123810032 C     T     Missense_Mu… p.T38M     
#>  2 TCGA-02… PANX3 11              124489539 G     A     Missense_Mu… p.R296Q    
#>  3 TCGA-02… SPI1  11               47380512 G     T     Missense_Mu… p.P127T    
#>  4 TCGA-02… NAAL… 11               89868837 C     T     Missense_Mu… p.R65C     
#>  5 TCGA-02… MTER… 12              107371855 A     G     Missense_Mu… p.L213S    
#>  6 TCGA-02… BTBD… 12              108012011 G     A     Missense_Mu… p.E770K    
#>  7 TCGA-02… SLC2… 12                7980269 C     T     Missense_Mu… p.R252Q    
#>  8 TCGA-02… SLC2… 12                8082458 C     T     Missense_Mu… p.R228Q    
#>  9 TCGA-02… EML1  14              100363606 G     A     Missense_Mu… p.A287T    
#> 10 TCGA-02… AKAP6 14               33290999 A     G     Missense_Mu… p.D1327G   
#> # ℹ 46,403 more rows
#> # ℹ 3 more variables: GeneFirstLetter <chr>, Disease <chr>, Silent <chr>
```
…
